…
path_df
```

    ## # A tibble: 160 x 4
    ##    arm     id    week  observation
    ##    <chr>   <chr> <chr>       <dbl>
    ##  1 control 01    1            0.2 
    ##  2 control 01    2           -1.31
    ##  3 control 01    3            0.66
    ##  4 control 01    4            1.96
    ##  5 control 01    5            0.23
    ##  6 control 01    6            1.09
    ##  7 control 01    7            0.05
    ##  8 control 01    8            1.94
    ##  9 control 02    1            1.13
    ## 10 control 02    2           -0.88
    ## # ... with 150 more rows
…
generate 5000 datasets and repeat

``` r
com_result = function(mu){
  
  rerun(5000, ttest(mu)) %>%
    bind_rows() %>%
    select(p.value, estimate)
}

# for mu = 0
com_result(0)
```

    ## # A tibble: 5,000 x 2
    ##    p.value estimate
    ##      <dbl>    <dbl>
    ##  1  0.584    0.449 
    ##  2  0.701   -0.321 
    ##  3  0.336    1.04  
    ##  4  0.752    0.346 
    ##  5  0.0409   2.10  
    ##  6  0.467   -0.633 
    ##  7  0.553   -0.543 
    ##  8  0.951    0.0711
    ##  9  0.727   -0.297 
    ## 10  0.344    0.843 
    ## # ... with 4,990 more rows
…
